\relax 
\@input{introduction.aux}
\select@language{french}
\@writefile{toc}{\select@language{french}}
\@writefile{lof}{\select@language{french}}
\@writefile{lot}{\select@language{french}}
\@input{rapport.aux}
\@input{conclusion.aux}
\@input{bibliographie.aux}
