\relax 
\@writefile{toc}{\contentsline {chapter}{\numberline {1}Plan de la lettre}{4}}
\@writefile{lof}{\addvspace {10\p@ }}
\@writefile{lot}{\addvspace {10\p@ }}
\@writefile{toc}{\contentsline {chapter}{\numberline {2}Types de lettres de motivation}{4}}
\@writefile{lof}{\addvspace {10\p@ }}
\@writefile{lot}{\addvspace {10\p@ }}
\@writefile{toc}{\contentsline {section}{\numberline {2.1}Lettre de motivation en réponse à des petites annonces}{4}}
\@writefile{toc}{\contentsline {section}{\numberline {2.2}Lettres de motivation en candidature spontanée}{5}}
\@writefile{toc}{\contentsline {section}{\numberline {2.3}Lettre de motivation envoyée aux cabinets de recrutement :}{5}}
\@writefile{toc}{\contentsline {section}{\numberline {2.4}Candidature par téléphone}{6}}
\@writefile{toc}{\contentsline {chapter}{\numberline {3}Types de formules}{7}}
\@writefile{lof}{\addvspace {10\p@ }}
\@writefile{lot}{\addvspace {10\p@ }}
\@writefile{toc}{\contentsline {section}{\numberline {3.1}Proposition de candidature}{7}}
\@writefile{toc}{\contentsline {section}{\numberline {3.2}Formation}{8}}
\@writefile{toc}{\contentsline {section}{\numberline {3.3}Expériences professionnelles}{8}}
\@writefile{toc}{\contentsline {section}{\numberline {3.4}Annonce du CV}{9}}
\@writefile{toc}{\contentsline {section}{\numberline {3.5}Formules de conclusion}{10}}
\@writefile{toc}{\contentsline {section}{\numberline {3.6}Formules de politesse}{10}}
\@writefile{toc}{\contentsline {chapter}{\numberline {4}Quelques erreurs à éviter}{11}}
\@writefile{lof}{\addvspace {10\p@ }}
\@writefile{lot}{\addvspace {10\p@ }}
\@writefile{toc}{\contentsline {section}{\numberline {4.1}Erreurs de forme}{11}}
\@writefile{toc}{\contentsline {section}{\numberline {4.2}Erreurs de fond}{11}}
\@setckpt{rapport}{
\setcounter{page}{12}
\setcounter{equation}{0}
\setcounter{enumi}{0}
\setcounter{enumii}{0}
\setcounter{enumiii}{0}
\setcounter{enumiv}{0}
\setcounter{footnote}{0}
\setcounter{mpfootnote}{0}
\setcounter{part}{0}
\setcounter{chapter}{4}
\setcounter{section}{2}
\setcounter{subsection}{0}
\setcounter{subsubsection}{0}
\setcounter{paragraph}{0}
\setcounter{subparagraph}{0}
\setcounter{figure}{0}
\setcounter{table}{0}
\setcounter{float@type}{8}
\setcounter{lstnumber}{1}
\setcounter{lstlisting}{0}
}
